# 1 "verify_init_lanes.c"
# 1 "<built-in>"
# 1 "<command-line>"
# 1 "verify_init_lanes.c"
# 1 "stdbool2.h" 1
typedef int BOOL;
# 2 "verify_init_lanes.c" 2
# 1 "dummy_globals.h" 1



# 1 "/usr/include/stdio.h" 1 3 4
# 28 "/usr/include/stdio.h" 3 4
# 1 "/usr/include/features.h" 1 3 4
# 323 "/usr/include/features.h" 3 4
# 1 "/usr/include/i386-linux-gnu/bits/predefs.h" 1 3 4
# 324 "/usr/include/features.h" 2 3 4
# 356 "/usr/include/features.h" 3 4
# 1 "/usr/include/i386-linux-gnu/sys/cdefs.h" 1 3 4
# 353 "/usr/include/i386-linux-gnu/sys/cdefs.h" 3 4
# 1 "/usr/include/i386-linux-gnu/bits/wordsize.h" 1 3 4
# 354 "/usr/include/i386-linux-gnu/sys/cdefs.h" 2 3 4
# 357 "/usr/include/features.h" 2 3 4
# 388 "/usr/include/features.h" 3 4
# 1 "/usr/include/i386-linux-gnu/gnu/stubs.h" 1 3 4



# 1 "/usr/include/i386-linux-gnu/bits/wordsize.h" 1 3 4
# 5 "/usr/include/i386-linux-gnu/gnu/stubs.h" 2 3 4


# 1 "/usr/include/i386-linux-gnu/gnu/stubs-32.h" 1 3 4
# 8 "/usr/include/i386-linux-gnu/gnu/stubs.h" 2 3 4
# 389 "/usr/include/features.h" 2 3 4
# 29 "/usr/include/stdio.h" 2 3 4





# 1 "/usr/lib/gcc/i686-linux-gnu/4.6.1/include/stddef.h" 1 3 4
# 212 "/usr/lib/gcc/i686-linux-gnu/4.6.1/include/stddef.h" 3 4
typedef unsigned int size_t;
# 35 "/usr/include/stdio.h" 2 3 4

# 1 "/usr/include/i386-linux-gnu/bits/types.h" 1 3 4
# 28 "/usr/include/i386-linux-gnu/bits/types.h" 3 4
# 1 "/usr/include/i386-linux-gnu/bits/wordsize.h" 1 3 4
# 29 "/usr/include/i386-linux-gnu/bits/types.h" 2 3 4


typedef unsigned char __u_char;
typedef unsigned short int __u_short;
typedef unsigned int __u_int;
typedef unsigned long int __u_long;


typedef signed char __int8_t;
typedef unsigned char __uint8_t;
typedef signed short int __int16_t;
typedef unsigned short int __uint16_t;
typedef signed int __int32_t;
typedef unsigned int __uint32_t;




__extension__ typedef signed long long int __int64_t;
__extension__ typedef unsigned long long int __uint64_t;







__extension__ typedef long long int __quad_t;
__extension__ typedef unsigned long long int __u_quad_t;
# 131 "/usr/include/i386-linux-gnu/bits/types.h" 3 4
# 1 "/usr/include/i386-linux-gnu/bits/typesizes.h" 1 3 4
# 132 "/usr/include/i386-linux-gnu/bits/types.h" 2 3 4


__extension__ typedef __u_quad_t __dev_t;
__extension__ typedef unsigned int __uid_t;
__extension__ typedef unsigned int __gid_t;
__extension__ typedef unsigned long int __ino_t;
__extension__ typedef __u_quad_t __ino64_t;
__extension__ typedef unsigned int __mode_t;
__extension__ typedef unsigned int __nlink_t;
__extension__ typedef long int __off_t;
__extension__ typedef __quad_t __off64_t;
__extension__ typedef int __pid_t;
__extension__ typedef struct { int __val[2]; } __fsid_t;
__extension__ typedef long int __clock_t;
__extension__ typedef unsigned long int __rlim_t;
__extension__ typedef __u_quad_t __rlim64_t;
__extension__ typedef unsigned int __id_t;
__extension__ typedef long int __time_t;
__extension__ typedef unsigned int __useconds_t;
__extension__ typedef long int __suseconds_t;

__extension__ typedef int __daddr_t;
__extension__ typedef long int __swblk_t;
__extension__ typedef int __key_t;


__extension__ typedef int __clockid_t;


__extension__ typedef void * __timer_t;


__extension__ typedef long int __blksize_t;




__extension__ typedef long int __blkcnt_t;
__extension__ typedef __quad_t __blkcnt64_t;


__extension__ typedef unsigned long int __fsblkcnt_t;
__extension__ typedef __u_quad_t __fsblkcnt64_t;


__extension__ typedef unsigned long int __fsfilcnt_t;
__extension__ typedef __u_quad_t __fsfilcnt64_t;

__extension__ typedef int __ssize_t;



typedef __off64_t __loff_t;
typedef __quad_t *__qaddr_t;
typedef char *__caddr_t;


__extension__ typedef int __intptr_t;


__extension__ typedef unsigned int __socklen_t;
# 37 "/usr/include/stdio.h" 2 3 4
# 45 "/usr/include/stdio.h" 3 4
struct _IO_FILE;



typedef struct _IO_FILE FILE;





# 65 "/usr/include/stdio.h" 3 4
typedef struct _IO_FILE __FILE;
# 75 "/usr/include/stdio.h" 3 4
# 1 "/usr/include/libio.h" 1 3 4
# 32 "/usr/include/libio.h" 3 4
# 1 "/usr/include/_G_config.h" 1 3 4
# 15 "/usr/include/_G_config.h" 3 4
# 1 "/usr/lib/gcc/i686-linux-gnu/4.6.1/include/stddef.h" 1 3 4
# 16 "/usr/include/_G_config.h" 2 3 4




# 1 "/usr/include/wchar.h" 1 3 4
# 83 "/usr/include/wchar.h" 3 4
typedef struct
{
  int __count;
  union
  {

    unsigned int __wch;



    char __wchb[4];
  } __value;
} __mbstate_t;
# 21 "/usr/include/_G_config.h" 2 3 4

typedef struct
{
  __off_t __pos;
  __mbstate_t __state;
} _G_fpos_t;
typedef struct
{
  __off64_t __pos;
  __mbstate_t __state;
} _G_fpos64_t;
# 53 "/usr/include/_G_config.h" 3 4
typedef int _G_int16_t __attribute__ ((__mode__ (__HI__)));
typedef int _G_int32_t __attribute__ ((__mode__ (__SI__)));
typedef unsigned int _G_uint16_t __attribute__ ((__mode__ (__HI__)));
typedef unsigned int _G_uint32_t __attribute__ ((__mode__ (__SI__)));
# 33 "/usr/include/libio.h" 2 3 4
# 53 "/usr/include/libio.h" 3 4
# 1 "/usr/lib/gcc/i686-linux-gnu/4.6.1/include/stdarg.h" 1 3 4
# 40 "/usr/lib/gcc/i686-linux-gnu/4.6.1/include/stdarg.h" 3 4
typedef __builtin_va_list __gnuc_va_list;
# 54 "/usr/include/libio.h" 2 3 4
# 170 "/usr/include/libio.h" 3 4
struct _IO_jump_t; struct _IO_FILE;
# 180 "/usr/include/libio.h" 3 4
typedef void _IO_lock_t;





struct _IO_marker {
  struct _IO_marker *_next;
  struct _IO_FILE *_sbuf;



  int _pos;
# 203 "/usr/include/libio.h" 3 4
};


enum __codecvt_result
{
  __codecvt_ok,
  __codecvt_partial,
  __codecvt_error,
  __codecvt_noconv
};
# 271 "/usr/include/libio.h" 3 4
struct _IO_FILE {
  int _flags;




  char* _IO_read_ptr;
  char* _IO_read_end;
  char* _IO_read_base;
  char* _IO_write_base;
  char* _IO_write_ptr;
  char* _IO_write_end;
  char* _IO_buf_base;
  char* _IO_buf_end;

  char *_IO_save_base;
  char *_IO_backup_base;
  char *_IO_save_end;

  struct _IO_marker *_markers;

  struct _IO_FILE *_chain;

  int _fileno;



  int _flags2;

  __off_t _old_offset;



  unsigned short _cur_column;
  signed char _vtable_offset;
  char _shortbuf[1];



  _IO_lock_t *_lock;
# 319 "/usr/include/libio.h" 3 4
  __off64_t _offset;
# 328 "/usr/include/libio.h" 3 4
  void *__pad1;
  void *__pad2;
  void *__pad3;
  void *__pad4;
  size_t __pad5;

  int _mode;

  char _unused2[15 * sizeof (int) - 4 * sizeof (void *) - sizeof (size_t)];

};


typedef struct _IO_FILE _IO_FILE;


struct _IO_FILE_plus;

extern struct _IO_FILE_plus _IO_2_1_stdin_;
extern struct _IO_FILE_plus _IO_2_1_stdout_;
extern struct _IO_FILE_plus _IO_2_1_stderr_;
# 364 "/usr/include/libio.h" 3 4
typedef __ssize_t __io_read_fn (void *__cookie, char *__buf, size_t __nbytes);







typedef __ssize_t __io_write_fn (void *__cookie, __const char *__buf,
     size_t __n);







typedef int __io_seek_fn (void *__cookie, __off64_t *__pos, int __w);


typedef int __io_close_fn (void *__cookie);
# 416 "/usr/include/libio.h" 3 4
extern int __underflow (_IO_FILE *);
extern int __uflow (_IO_FILE *);
extern int __overflow (_IO_FILE *, int);
# 460 "/usr/include/libio.h" 3 4
extern int _IO_getc (_IO_FILE *__fp);
extern int _IO_putc (int __c, _IO_FILE *__fp);
extern int _IO_feof (_IO_FILE *__fp) __attribute__ ((__nothrow__));
extern int _IO_ferror (_IO_FILE *__fp) __attribute__ ((__nothrow__));

extern int _IO_peekc_locked (_IO_FILE *__fp);





extern void _IO_flockfile (_IO_FILE *) __attribute__ ((__nothrow__));
extern void _IO_funlockfile (_IO_FILE *) __attribute__ ((__nothrow__));
extern int _IO_ftrylockfile (_IO_FILE *) __attribute__ ((__nothrow__));
# 490 "/usr/include/libio.h" 3 4
extern int _IO_vfscanf (_IO_FILE * __restrict, const char * __restrict,
   __gnuc_va_list, int *__restrict);
extern int _IO_vfprintf (_IO_FILE *__restrict, const char *__restrict,
    __gnuc_va_list);
extern __ssize_t _IO_padn (_IO_FILE *, int, __ssize_t);
extern size_t _IO_sgetn (_IO_FILE *, void *, size_t);

extern __off64_t _IO_seekoff (_IO_FILE *, __off64_t, int, int);
extern __off64_t _IO_seekpos (_IO_FILE *, __off64_t, int);

extern void _IO_free_backup_area (_IO_FILE *) __attribute__ ((__nothrow__));
# 76 "/usr/include/stdio.h" 2 3 4




typedef __gnuc_va_list va_list;
# 91 "/usr/include/stdio.h" 3 4
typedef __off_t off_t;
# 103 "/usr/include/stdio.h" 3 4
typedef __ssize_t ssize_t;







typedef _G_fpos_t fpos_t;




# 161 "/usr/include/stdio.h" 3 4
# 1 "/usr/include/i386-linux-gnu/bits/stdio_lim.h" 1 3 4
# 162 "/usr/include/stdio.h" 2 3 4



extern struct _IO_FILE *stdin;
extern struct _IO_FILE *stdout;
extern struct _IO_FILE *stderr;







extern int remove (__const char *__filename) __attribute__ ((__nothrow__));

extern int rename (__const char *__old, __const char *__new) __attribute__ ((__nothrow__));




extern int renameat (int __oldfd, __const char *__old, int __newfd,
       __const char *__new) __attribute__ ((__nothrow__));








extern FILE *tmpfile (void) ;
# 206 "/usr/include/stdio.h" 3 4
extern char *tmpnam (char *__s) __attribute__ ((__nothrow__)) ;





extern char *tmpnam_r (char *__s) __attribute__ ((__nothrow__)) ;
# 224 "/usr/include/stdio.h" 3 4
extern char *tempnam (__const char *__dir, __const char *__pfx)
     __attribute__ ((__nothrow__)) __attribute__ ((__malloc__)) ;








extern int fclose (FILE *__stream);




extern int fflush (FILE *__stream);

# 249 "/usr/include/stdio.h" 3 4
extern int fflush_unlocked (FILE *__stream);
# 263 "/usr/include/stdio.h" 3 4






extern FILE *fopen (__const char *__restrict __filename,
      __const char *__restrict __modes) ;




extern FILE *freopen (__const char *__restrict __filename,
        __const char *__restrict __modes,
        FILE *__restrict __stream) ;
# 292 "/usr/include/stdio.h" 3 4

# 303 "/usr/include/stdio.h" 3 4
extern FILE *fdopen (int __fd, __const char *__modes) __attribute__ ((__nothrow__)) ;
# 316 "/usr/include/stdio.h" 3 4
extern FILE *fmemopen (void *__s, size_t __len, __const char *__modes)
  __attribute__ ((__nothrow__)) ;




extern FILE *open_memstream (char **__bufloc, size_t *__sizeloc) __attribute__ ((__nothrow__)) ;






extern void setbuf (FILE *__restrict __stream, char *__restrict __buf) __attribute__ ((__nothrow__));



extern int setvbuf (FILE *__restrict __stream, char *__restrict __buf,
      int __modes, size_t __n) __attribute__ ((__nothrow__));





extern void setbuffer (FILE *__restrict __stream, char *__restrict __buf,
         size_t __size) __attribute__ ((__nothrow__));


extern void setlinebuf (FILE *__stream) __attribute__ ((__nothrow__));








extern int fprintf (FILE *__restrict __stream,
      __const char *__restrict __format, ...);




extern int printf (__const char *__restrict __format, ...);

extern int sprintf (char *__restrict __s,
      __const char *__restrict __format, ...) __attribute__ ((__nothrow__));





extern int vfprintf (FILE *__restrict __s, __const char *__restrict __format,
       __gnuc_va_list __arg);




extern int vprintf (__const char *__restrict __format, __gnuc_va_list __arg);

extern int vsprintf (char *__restrict __s, __const char *__restrict __format,
       __gnuc_va_list __arg) __attribute__ ((__nothrow__));





extern int snprintf (char *__restrict __s, size_t __maxlen,
       __const char *__restrict __format, ...)
     __attribute__ ((__nothrow__)) __attribute__ ((__format__ (__printf__, 3, 4)));

extern int vsnprintf (char *__restrict __s, size_t __maxlen,
        __const char *__restrict __format, __gnuc_va_list __arg)
     __attribute__ ((__nothrow__)) __attribute__ ((__format__ (__printf__, 3, 0)));

# 414 "/usr/include/stdio.h" 3 4
extern int vdprintf (int __fd, __const char *__restrict __fmt,
       __gnuc_va_list __arg)
     __attribute__ ((__format__ (__printf__, 2, 0)));
extern int dprintf (int __fd, __const char *__restrict __fmt, ...)
     __attribute__ ((__format__ (__printf__, 2, 3)));








extern int fscanf (FILE *__restrict __stream,
     __const char *__restrict __format, ...) ;




extern int scanf (__const char *__restrict __format, ...) ;

extern int sscanf (__const char *__restrict __s,
     __const char *__restrict __format, ...) __attribute__ ((__nothrow__));
# 445 "/usr/include/stdio.h" 3 4
extern int fscanf (FILE *__restrict __stream, __const char *__restrict __format, ...) __asm__ ("" "__isoc99_fscanf")

                               ;
extern int scanf (__const char *__restrict __format, ...) __asm__ ("" "__isoc99_scanf")
                              ;
extern int sscanf (__const char *__restrict __s, __const char *__restrict __format, ...) __asm__ ("" "__isoc99_sscanf") __attribute__ ((__nothrow__))

                      ;
# 465 "/usr/include/stdio.h" 3 4








extern int vfscanf (FILE *__restrict __s, __const char *__restrict __format,
      __gnuc_va_list __arg)
     __attribute__ ((__format__ (__scanf__, 2, 0))) ;





extern int vscanf (__const char *__restrict __format, __gnuc_va_list __arg)
     __attribute__ ((__format__ (__scanf__, 1, 0))) ;


extern int vsscanf (__const char *__restrict __s,
      __const char *__restrict __format, __gnuc_va_list __arg)
     __attribute__ ((__nothrow__)) __attribute__ ((__format__ (__scanf__, 2, 0)));
# 496 "/usr/include/stdio.h" 3 4
extern int vfscanf (FILE *__restrict __s, __const char *__restrict __format, __gnuc_va_list __arg) __asm__ ("" "__isoc99_vfscanf")



     __attribute__ ((__format__ (__scanf__, 2, 0))) ;
extern int vscanf (__const char *__restrict __format, __gnuc_va_list __arg) __asm__ ("" "__isoc99_vscanf")

     __attribute__ ((__format__ (__scanf__, 1, 0))) ;
extern int vsscanf (__const char *__restrict __s, __const char *__restrict __format, __gnuc_va_list __arg) __asm__ ("" "__isoc99_vsscanf") __attribute__ ((__nothrow__))



     __attribute__ ((__format__ (__scanf__, 2, 0)));
# 524 "/usr/include/stdio.h" 3 4









extern int fgetc (FILE *__stream);
extern int getc (FILE *__stream);





extern int getchar (void);

# 552 "/usr/include/stdio.h" 3 4
extern int getc_unlocked (FILE *__stream);
extern int getchar_unlocked (void);
# 563 "/usr/include/stdio.h" 3 4
extern int fgetc_unlocked (FILE *__stream);











extern int fputc (int __c, FILE *__stream);
extern int putc (int __c, FILE *__stream);





extern int putchar (int __c);

# 596 "/usr/include/stdio.h" 3 4
extern int fputc_unlocked (int __c, FILE *__stream);







extern int putc_unlocked (int __c, FILE *__stream);
extern int putchar_unlocked (int __c);






extern int getw (FILE *__stream);


extern int putw (int __w, FILE *__stream);








extern char *fgets (char *__restrict __s, int __n, FILE *__restrict __stream)
     ;






extern char *gets (char *__s) ;

# 658 "/usr/include/stdio.h" 3 4
extern __ssize_t __getdelim (char **__restrict __lineptr,
          size_t *__restrict __n, int __delimiter,
          FILE *__restrict __stream) ;
extern __ssize_t getdelim (char **__restrict __lineptr,
        size_t *__restrict __n, int __delimiter,
        FILE *__restrict __stream) ;







extern __ssize_t getline (char **__restrict __lineptr,
       size_t *__restrict __n,
       FILE *__restrict __stream) ;








extern int fputs (__const char *__restrict __s, FILE *__restrict __stream);





extern int puts (__const char *__s);






extern int ungetc (int __c, FILE *__stream);






extern size_t fread (void *__restrict __ptr, size_t __size,
       size_t __n, FILE *__restrict __stream) ;




extern size_t fwrite (__const void *__restrict __ptr, size_t __size,
        size_t __n, FILE *__restrict __s);

# 730 "/usr/include/stdio.h" 3 4
extern size_t fread_unlocked (void *__restrict __ptr, size_t __size,
         size_t __n, FILE *__restrict __stream) ;
extern size_t fwrite_unlocked (__const void *__restrict __ptr, size_t __size,
          size_t __n, FILE *__restrict __stream);








extern int fseek (FILE *__stream, long int __off, int __whence);




extern long int ftell (FILE *__stream) ;




extern void rewind (FILE *__stream);

# 766 "/usr/include/stdio.h" 3 4
extern int fseeko (FILE *__stream, __off_t __off, int __whence);




extern __off_t ftello (FILE *__stream) ;
# 785 "/usr/include/stdio.h" 3 4






extern int fgetpos (FILE *__restrict __stream, fpos_t *__restrict __pos);




extern int fsetpos (FILE *__stream, __const fpos_t *__pos);
# 808 "/usr/include/stdio.h" 3 4

# 817 "/usr/include/stdio.h" 3 4


extern void clearerr (FILE *__stream) __attribute__ ((__nothrow__));

extern int feof (FILE *__stream) __attribute__ ((__nothrow__)) ;

extern int ferror (FILE *__stream) __attribute__ ((__nothrow__)) ;




extern void clearerr_unlocked (FILE *__stream) __attribute__ ((__nothrow__));
extern int feof_unlocked (FILE *__stream) __attribute__ ((__nothrow__)) ;
extern int ferror_unlocked (FILE *__stream) __attribute__ ((__nothrow__)) ;








extern void perror (__const char *__s);






# 1 "/usr/include/i386-linux-gnu/bits/sys_errlist.h" 1 3 4
# 27 "/usr/include/i386-linux-gnu/bits/sys_errlist.h" 3 4
extern int sys_nerr;
extern __const char *__const sys_errlist[];
# 847 "/usr/include/stdio.h" 2 3 4




extern int fileno (FILE *__stream) __attribute__ ((__nothrow__)) ;




extern int fileno_unlocked (FILE *__stream) __attribute__ ((__nothrow__)) ;
# 866 "/usr/include/stdio.h" 3 4
extern FILE *popen (__const char *__command, __const char *__modes) ;





extern int pclose (FILE *__stream);





extern char *ctermid (char *__s) __attribute__ ((__nothrow__));
# 906 "/usr/include/stdio.h" 3 4
extern void flockfile (FILE *__stream) __attribute__ ((__nothrow__));



extern int ftrylockfile (FILE *__stream) __attribute__ ((__nothrow__)) ;


extern void funlockfile (FILE *__stream) __attribute__ ((__nothrow__));
# 936 "/usr/include/stdio.h" 3 4

# 5 "dummy_globals.h" 2
# 1 "/usr/include/string.h" 1 3 4
# 29 "/usr/include/string.h" 3 4





# 1 "/usr/lib/gcc/i686-linux-gnu/4.6.1/include/stddef.h" 1 3 4
# 35 "/usr/include/string.h" 2 3 4









extern void *memcpy (void *__restrict __dest,
       __const void *__restrict __src, size_t __n)
     __attribute__ ((__nothrow__)) __attribute__ ((__nonnull__ (1, 2)));


extern void *memmove (void *__dest, __const void *__src, size_t __n)
     __attribute__ ((__nothrow__)) __attribute__ ((__nonnull__ (1, 2)));






extern void *memccpy (void *__restrict __dest, __const void *__restrict __src,
        int __c, size_t __n)
     __attribute__ ((__nothrow__)) __attribute__ ((__nonnull__ (1, 2)));





extern void *memset (void *__s, int __c, size_t __n) __attribute__ ((__nothrow__)) __attribute__ ((__nonnull__ (1)));


extern int memcmp (__const void *__s1, __const void *__s2, size_t __n)
     __attribute__ ((__nothrow__)) __attribute__ ((__pure__)) __attribute__ ((__nonnull__ (1, 2)));
# 95 "/usr/include/string.h" 3 4
extern void *memchr (__const void *__s, int __c, size_t __n)
      __attribute__ ((__nothrow__)) __attribute__ ((__pure__)) __attribute__ ((__nonnull__ (1)));


# 126 "/usr/include/string.h" 3 4


extern char *strcpy (char *__restrict __dest, __const char *__restrict __src)
     __attribute__ ((__nothrow__)) __attribute__ ((__nonnull__ (1, 2)));

extern char *strncpy (char *__restrict __dest,
        __const char *__restrict __src, size_t __n)
     __attribute__ ((__nothrow__)) __attribute__ ((__nonnull__ (1, 2)));


extern char *strcat (char *__restrict __dest, __const char *__restrict __src)
     __attribute__ ((__nothrow__)) __attribute__ ((__nonnull__ (1, 2)));

extern char *strncat (char *__restrict __dest, __const char *__restrict __src,
        size_t __n) __attribute__ ((__nothrow__)) __attribute__ ((__nonnull__ (1, 2)));


extern int strcmp (__const char *__s1, __const char *__s2)
     __attribute__ ((__nothrow__)) __attribute__ ((__pure__)) __attribute__ ((__nonnull__ (1, 2)));

extern int strncmp (__const char *__s1, __const char *__s2, size_t __n)
     __attribute__ ((__nothrow__)) __attribute__ ((__pure__)) __attribute__ ((__nonnull__ (1, 2)));


extern int strcoll (__const char *__s1, __const char *__s2)
     __attribute__ ((__nothrow__)) __attribute__ ((__pure__)) __attribute__ ((__nonnull__ (1, 2)));

extern size_t strxfrm (char *__restrict __dest,
         __const char *__restrict __src, size_t __n)
     __attribute__ ((__nothrow__)) __attribute__ ((__nonnull__ (2)));






# 1 "/usr/include/xlocale.h" 1 3 4
# 28 "/usr/include/xlocale.h" 3 4
typedef struct __locale_struct
{

  struct __locale_data *__locales[13];


  const unsigned short int *__ctype_b;
  const int *__ctype_tolower;
  const int *__ctype_toupper;


  const char *__names[13];
} *__locale_t;


typedef __locale_t locale_t;
# 163 "/usr/include/string.h" 2 3 4


extern int strcoll_l (__const char *__s1, __const char *__s2, __locale_t __l)
     __attribute__ ((__nothrow__)) __attribute__ ((__pure__)) __attribute__ ((__nonnull__ (1, 2, 3)));

extern size_t strxfrm_l (char *__dest, __const char *__src, size_t __n,
    __locale_t __l) __attribute__ ((__nothrow__)) __attribute__ ((__nonnull__ (2, 4)));





extern char *strdup (__const char *__s)
     __attribute__ ((__nothrow__)) __attribute__ ((__malloc__)) __attribute__ ((__nonnull__ (1)));






extern char *strndup (__const char *__string, size_t __n)
     __attribute__ ((__nothrow__)) __attribute__ ((__malloc__)) __attribute__ ((__nonnull__ (1)));
# 210 "/usr/include/string.h" 3 4

# 235 "/usr/include/string.h" 3 4
extern char *strchr (__const char *__s, int __c)
     __attribute__ ((__nothrow__)) __attribute__ ((__pure__)) __attribute__ ((__nonnull__ (1)));
# 262 "/usr/include/string.h" 3 4
extern char *strrchr (__const char *__s, int __c)
     __attribute__ ((__nothrow__)) __attribute__ ((__pure__)) __attribute__ ((__nonnull__ (1)));


# 281 "/usr/include/string.h" 3 4



extern size_t strcspn (__const char *__s, __const char *__reject)
     __attribute__ ((__nothrow__)) __attribute__ ((__pure__)) __attribute__ ((__nonnull__ (1, 2)));


extern size_t strspn (__const char *__s, __const char *__accept)
     __attribute__ ((__nothrow__)) __attribute__ ((__pure__)) __attribute__ ((__nonnull__ (1, 2)));
# 314 "/usr/include/string.h" 3 4
extern char *strpbrk (__const char *__s, __const char *__accept)
     __attribute__ ((__nothrow__)) __attribute__ ((__pure__)) __attribute__ ((__nonnull__ (1, 2)));
# 342 "/usr/include/string.h" 3 4
extern char *strstr (__const char *__haystack, __const char *__needle)
     __attribute__ ((__nothrow__)) __attribute__ ((__pure__)) __attribute__ ((__nonnull__ (1, 2)));




extern char *strtok (char *__restrict __s, __const char *__restrict __delim)
     __attribute__ ((__nothrow__)) __attribute__ ((__nonnull__ (2)));




extern char *__strtok_r (char *__restrict __s,
    __const char *__restrict __delim,
    char **__restrict __save_ptr)
     __attribute__ ((__nothrow__)) __attribute__ ((__nonnull__ (2, 3)));

extern char *strtok_r (char *__restrict __s, __const char *__restrict __delim,
         char **__restrict __save_ptr)
     __attribute__ ((__nothrow__)) __attribute__ ((__nonnull__ (2, 3)));
# 397 "/usr/include/string.h" 3 4


extern size_t strlen (__const char *__s)
     __attribute__ ((__nothrow__)) __attribute__ ((__pure__)) __attribute__ ((__nonnull__ (1)));





extern size_t strnlen (__const char *__string, size_t __maxlen)
     __attribute__ ((__nothrow__)) __attribute__ ((__pure__)) __attribute__ ((__nonnull__ (1)));





extern char *strerror (int __errnum) __attribute__ ((__nothrow__));

# 427 "/usr/include/string.h" 3 4
extern int strerror_r (int __errnum, char *__buf, size_t __buflen) __asm__ ("" "__xpg_strerror_r") __attribute__ ((__nothrow__))

                        __attribute__ ((__nonnull__ (2)));
# 445 "/usr/include/string.h" 3 4
extern char *strerror_l (int __errnum, __locale_t __l) __attribute__ ((__nothrow__));





extern void __bzero (void *__s, size_t __n) __attribute__ ((__nothrow__)) __attribute__ ((__nonnull__ (1)));



extern void bcopy (__const void *__src, void *__dest, size_t __n)
     __attribute__ ((__nothrow__)) __attribute__ ((__nonnull__ (1, 2)));


extern void bzero (void *__s, size_t __n) __attribute__ ((__nothrow__)) __attribute__ ((__nonnull__ (1)));


extern int bcmp (__const void *__s1, __const void *__s2, size_t __n)
     __attribute__ ((__nothrow__)) __attribute__ ((__pure__)) __attribute__ ((__nonnull__ (1, 2)));
# 489 "/usr/include/string.h" 3 4
extern char *index (__const char *__s, int __c)
     __attribute__ ((__nothrow__)) __attribute__ ((__pure__)) __attribute__ ((__nonnull__ (1)));
# 517 "/usr/include/string.h" 3 4
extern char *rindex (__const char *__s, int __c)
     __attribute__ ((__nothrow__)) __attribute__ ((__pure__)) __attribute__ ((__nonnull__ (1)));




extern int ffs (int __i) __attribute__ ((__nothrow__)) __attribute__ ((__const__));
# 536 "/usr/include/string.h" 3 4
extern int strcasecmp (__const char *__s1, __const char *__s2)
     __attribute__ ((__nothrow__)) __attribute__ ((__pure__)) __attribute__ ((__nonnull__ (1, 2)));


extern int strncasecmp (__const char *__s1, __const char *__s2, size_t __n)
     __attribute__ ((__nothrow__)) __attribute__ ((__pure__)) __attribute__ ((__nonnull__ (1, 2)));
# 559 "/usr/include/string.h" 3 4
extern char *strsep (char **__restrict __stringp,
       __const char *__restrict __delim)
     __attribute__ ((__nothrow__)) __attribute__ ((__nonnull__ (1, 2)));




extern char *strsignal (int __sig) __attribute__ ((__nothrow__));


extern char *__stpcpy (char *__restrict __dest, __const char *__restrict __src)
     __attribute__ ((__nothrow__)) __attribute__ ((__nonnull__ (1, 2)));
extern char *stpcpy (char *__restrict __dest, __const char *__restrict __src)
     __attribute__ ((__nothrow__)) __attribute__ ((__nonnull__ (1, 2)));



extern char *__stpncpy (char *__restrict __dest,
   __const char *__restrict __src, size_t __n)
     __attribute__ ((__nothrow__)) __attribute__ ((__nonnull__ (1, 2)));
extern char *stpncpy (char *__restrict __dest,
        __const char *__restrict __src, size_t __n)
     __attribute__ ((__nothrow__)) __attribute__ ((__nonnull__ (1, 2)));
# 646 "/usr/include/string.h" 3 4

# 6 "dummy_globals.h" 2
# 1 "stdbool2.h" 1
typedef int BOOL;
# 7 "dummy_globals.h" 2
# 16 "dummy_globals.h"
typedef enum Direction {
 UP,
 DOWN,
 LEFT,
 RIGHT,
 SN = UP,
 NS = DOWN,
 EW = LEFT,
 WE = RIGHT
} Direction;

typedef enum TurnIntention {
 LEFT_TURN,
 RIGHT_RIGHT,
 STRAIGHT
} TurnIntention;

typedef struct Point {
 float x;
 float y;
} Point;

typedef struct Car {
 Point location;
 float speed;
 char plate[7];
 BOOL red;
 BOOL orange;
 BOOL invisible;
 TurnIntention turn_intention;
 int lane_id;
} Car;

typedef struct Lane {
 Car cars[50];
 int start_index;
 int end_index;
 int count;
 Direction direction;
 Point start_pos;
 Point end_pos;
 float density;
 int lane_id;
} Lane;

typedef struct Intersection {
 Point origin;
 float width;
 float height;
 int isGenerated;
} Intersection;

typedef enum {
 RED = 0,
 ORANGE = 1,
 GREEN = 2,
}TrafLightState;

typedef struct{
 float xPos;
 float yPos;
 TrafLightState state;
} trafLight;

typedef struct
{
    trafLight trafLightNS;
    trafLight trafLightEW;
} IntersectionLights;

typedef struct Box {
 Point center;
 float width;
 float height;
 Direction direction;
} Box;

typedef struct IntersectionConstructor {
 Point origin;
 BOOL northDone;
 BOOL eastDone;
 BOOL southDone;
 BOOL westDone;
} IntersectionConstructor;



typedef struct Arrow {
 Point start;
 Point end;
 struct Arrow* endConnectors[5];
 struct Arrow* startConnectors[5];
} Arrow;




Box goZone[4];

int num_arrows = 0;
Arrow* arrows;
int arrowNextInArray = 0;

IntersectionLights* intersectionLights;

IntersectionConstructor* intersectionConstructors;

Lane all_lanes[24];

const float CAR_LENGTH = 40.0;
const float CAR_WIDTH = 20.0;

const float intersection_width = 100.0;
const float intersection_height = 100.0;
const float intersection_padding = 20.0;

const float TRAFFIC_LIGHT_WIDTH = 20.0;
const float TRAFFIC_LIGHT_HEIGHT = 20.0;


int global_speed_limit = 50;
const float UPDATES_PER_SECOND = (float)1000 / 100;

Intersection* intersections;
int number_of_intersections = 1;
int max_number_of_intersections = 5;

int to_continue = 1;
# 3 "verify_init_lanes.c" 2

void init_lanes()
{
 BOOL fourIntersections = 0;





 for (int i = 0; i < 24.; ++i)
 {
     all_lanes[i].lane_id = i;
 }


    Point* topLeft;
    Point* topRight;
    Point* botLeft;
    Point* botRight;

    int minX = 4000;
    int minY = 4000;

    int test[4];

    intersections = (Intersection*) malloc(4 * sizeof(Intersection));
    intersections[0].origin.x = 3800;
    intersections[0].origin.y = 3800;

    for (int n = 0; n < number_of_intersections; ++n)
    {
        if (intersections[n].origin.x > 3900)
        {
            intersections[n].origin.x = 3500;
        }
        if (intersections[n].origin.y > 3900)
        {
            intersections[n].origin.y = 3500;
        }
    }


    for (int n = 0; n < number_of_intersections; ++n)
    {
        if (intersections[n].origin.x < minX && intersections[n].origin.y < minY)
        {
            printf("Infrastructure: Found top left (%f,%f)\n", intersections[n].origin.x, intersections[n].origin.y);
            fourIntersections = 1;
            topLeft = &intersections[n].origin;
            minX = intersections[n].origin.x;
            minY = intersections[n].origin.y;
        }
    }
    if (fourIntersections == 0)
    {
        ERROR: goto ERROR;
    }


    if (fourIntersections == 1)
    {
        fourIntersections = 0;
        minX = 4000;
        for (int n = 0; n < number_of_intersections; ++n)
        {
            if (intersections[n].origin.x < minX && intersections[n].origin.x > topLeft->x && intersections[n].origin.y == topLeft->y)
            {
                printf("Infrastructure: Found top right (%f,%f)\n", intersections[n].origin.x, intersections[n].origin.y);
                fourIntersections = 1;
                topRight = &intersections[n].origin;
            }
        }
    }


    if (fourIntersections == 1)
    {
        fourIntersections = 0;
        minY = 4000;
        for (int n = 0; n < number_of_intersections; ++n)
        {
            if (intersections[n].origin.y < minY && intersections[n].origin.y > topLeft->y && intersections[n].origin.x == topLeft->x)
            {
                printf("Infrastructure: Found bot left (%f,%f)\n", intersections[n].origin.x, intersections[n].origin.y);
                fourIntersections = 1;
                botLeft = &intersections[n].origin;
            }
        }
    }


    if (fourIntersections == 1)
    {
        fourIntersections = 0;
        for (int n = 0; n < number_of_intersections; ++n)
        {
            if (intersections[n].origin.x == topRight->x && intersections[n].origin.y == botLeft->y)
            {
                printf("Infrastructure: Found bot right (%f,%f)\n", intersections[n].origin.x, intersections[n].origin.y);
                fourIntersections = 1;
                botRight = &intersections[n].origin;
            }
        }
    }




    Point* centre = &intersections[0].origin;


    if (fourIntersections == 0)
    {
        printf("Using one intersection\n");
     all_lanes[0].direction = WE;
     Point start_pos0 = { 0, centre->y - intersection_width/4 };
     Point end_pos0 = { centre->x, centre->y - intersection_width/4 };
     all_lanes[0].start_pos = start_pos0;
     all_lanes[0].end_pos = end_pos0;

     all_lanes[1].direction = WE;
     Point start_pos1 = { centre->x, centre->y - intersection_width/4 };
     Point end_pos1 = { 4000.0, centre->y - intersection_width/4 };
     all_lanes[1].start_pos = start_pos1;
     all_lanes[1].end_pos = end_pos1;

     all_lanes[2].direction = EW;
     Point start_pos2 = { 4000.0, centre->y + intersection_width/8 };
     Point end_pos2 = { centre->x, centre->y + intersection_width/8 };
     all_lanes[2].start_pos = start_pos2;
     all_lanes[2].end_pos = end_pos2;

     all_lanes[3].direction = EW;
     Point start_pos3 = { centre->x, centre->y + intersection_width/8 };
     Point end_pos3 = { 0, centre->y + intersection_width/8 };
     all_lanes[3].start_pos = start_pos3;
     all_lanes[3].end_pos = end_pos3;

     all_lanes[4].direction = SN;
     Point start_pos4 = { centre->x - intersection_width/4, 3000.0 };
     Point end_pos4 = { centre->x - intersection_width/4, centre->y };
     all_lanes[4].start_pos = start_pos4;
     all_lanes[4].end_pos = end_pos4;

     all_lanes[5].direction = SN;
     Point start_pos5 = { centre->x - intersection_width/4, centre->y };
     Point end_pos5 = { centre->x - intersection_width/4, 0 };
     all_lanes[5].start_pos = start_pos5;
     all_lanes[5].end_pos = end_pos5;

     all_lanes[6].direction = NS;
     Point start_pos6 = { centre->x + intersection_width/8, 0 };
     Point end_pos6 = { centre->x + intersection_width/8, centre->y };
     all_lanes[6].start_pos = start_pos6;
     all_lanes[6].end_pos = end_pos6;

     all_lanes[7].direction = NS;
     Point start_pos7 = { centre->x + intersection_width/8, centre->y };
     Point end_pos7 = { centre->x + intersection_width/8, 3000.0 };
     all_lanes[7].start_pos = start_pos7;
     all_lanes[7].end_pos = end_pos7;
 }

 else
 {
        printf("Using four intersections\n");

     all_lanes[0].direction = WE;
     Point start_pos0 = { 0, topLeft->y - intersection_width/4 };
     Point end_pos0 = { topLeft->x, topLeft->y - intersection_width/4 };
     all_lanes[0].start_pos = start_pos0;
     all_lanes[0].end_pos = end_pos0;

     all_lanes[1].direction = WE;
     Point start_pos1 = { topLeft->x, topLeft->y - intersection_width/4 };
     Point end_pos1 = { topRight->x, topLeft->y - intersection_width/4 };
     all_lanes[1].start_pos = start_pos1;
     all_lanes[1].end_pos = end_pos1;

     all_lanes[22].direction = WE;
     Point start_pos22 = { topRight->x, topLeft->y - intersection_width/4 };
     Point end_pos22 = { 4000.0, topLeft->y - intersection_width/4 };
     all_lanes[22].start_pos = start_pos22;
     all_lanes[22].end_pos = end_pos22;


     all_lanes[8].direction = WE;
     Point start_pos8 = { 0, botLeft->y - intersection_width/4 };
     Point end_pos8 = { botLeft->x, botLeft->y - intersection_width/4 };
     all_lanes[8].start_pos = start_pos8;
     all_lanes[8].end_pos = end_pos8;

     all_lanes[9].direction = WE;
     Point start_pos9 = { botLeft->x, botLeft->y - intersection_width/4 };
     Point end_pos9 = { botRight->x, botLeft->y - intersection_width/4 };
     all_lanes[9].start_pos = start_pos9;
     all_lanes[9].end_pos = end_pos9;

     all_lanes[10].direction = WE;
     Point start_pos10 = { botRight->x, botLeft->y - intersection_width/4 };
     Point end_pos10 = { 4000.0, botLeft->y - intersection_width/4 };
     all_lanes[10].start_pos = start_pos10;
     all_lanes[10].end_pos = end_pos10;


     all_lanes[23].direction = EW;
     Point start_pos23 = { 4000.0, topRight->y + intersection_width/8 };
     Point end_pos23 = { topRight->x, topRight->y + intersection_width/8 };
     all_lanes[23].start_pos = start_pos23;
     all_lanes[23].end_pos = end_pos23;

     all_lanes[2].direction = EW;
     Point start_pos2 = { topRight->x, topRight->y + intersection_width/8 };
     Point end_pos2 = { topLeft->x, topRight->y + intersection_width/8 };
     all_lanes[2].start_pos = start_pos2;
     all_lanes[2].end_pos = end_pos2;

     all_lanes[3].direction = EW;
     Point start_pos3 = { topLeft->x, topRight->y + intersection_width/8 };
     Point end_pos3 = { 0, topRight->y + intersection_width/8 };
     all_lanes[3].start_pos = start_pos3;
     all_lanes[3].end_pos = end_pos3;


     all_lanes[11].direction = EW;
     Point start_pos11 = { 4000.0, botRight->y + intersection_width/8 };
     Point end_pos11 = { botRight->x, botRight->y + intersection_width/8 };
     all_lanes[11].start_pos = start_pos11;
     all_lanes[11].end_pos = end_pos11;

     all_lanes[12].direction = EW;
     Point start_pos12 = { botRight->x, botRight->y + intersection_width/8 };
     Point end_pos12 = { botLeft->x, botRight->y + intersection_width/8 };
     all_lanes[12].start_pos = start_pos12;
     all_lanes[12].end_pos = end_pos12;

     all_lanes[13].direction = EW;
     Point start_pos13 = { botLeft->x, botRight->y + intersection_width/8 };
     Point end_pos13 = { 0, botRight->y + intersection_width/8 };
     all_lanes[13].start_pos = start_pos13;
     all_lanes[13].end_pos = end_pos13;


     all_lanes[20].direction = SN;
     Point start_pos20 = { botLeft->x - intersection_width/4, 3000.0 };
     Point end_pos20 = { botLeft->x - intersection_width/4, botLeft->y };
     all_lanes[20].start_pos = start_pos20;
     all_lanes[20].end_pos = end_pos20;

     all_lanes[4].direction = SN;
     Point start_pos4 = { botLeft->x - intersection_width/4, botLeft->y };
     Point end_pos4 = { botLeft->x - intersection_width/4, topLeft->y };
     all_lanes[4].start_pos = start_pos4;
     all_lanes[4].end_pos = end_pos4;

     all_lanes[5].direction = SN;
     Point start_pos5 = { botLeft->x - intersection_width/4, topLeft->y };
     Point end_pos5 = { botLeft->x - intersection_width/4, 0 };
     all_lanes[5].start_pos = start_pos5;
     all_lanes[5].end_pos = end_pos5;


     all_lanes[14].direction = SN;
     Point start_pos14 = { botRight->x - intersection_width/4, 3000.0 };
     Point end_pos14 = { botRight->x - intersection_width/4, botRight->y };
     all_lanes[14].start_pos = start_pos14;
     all_lanes[14].end_pos = end_pos14;

     all_lanes[15].direction = SN;
     Point start_pos15 = { botRight->x - intersection_width/4, botRight->y };
     Point end_pos15 = { botRight->x - intersection_width/4, topRight->y };
     all_lanes[15].start_pos = start_pos15;
     all_lanes[15].end_pos = end_pos15;

     all_lanes[16].direction = SN;
     Point start_pos16 = { botRight->x - intersection_width/4, topRight->y };
     Point end_pos16 = { botRight->x - intersection_width/4, 0 };
     all_lanes[16].start_pos = start_pos16;
     all_lanes[16].end_pos = end_pos16;


     all_lanes[6].direction = NS;
     Point start_pos6 = { topLeft->x + intersection_width/8, 0 };
     Point end_pos6 = { topLeft->x + intersection_width/8, topLeft->y };
     all_lanes[6].start_pos = start_pos6;
     all_lanes[6].end_pos = end_pos6;

     all_lanes[7].direction = NS;
     Point start_pos7 = { topLeft->x + intersection_width/8, topLeft->y };
     Point end_pos7 = { topLeft->x + intersection_width/8, botLeft->y };
     all_lanes[7].start_pos = start_pos7;
     all_lanes[7].end_pos = end_pos7;

     all_lanes[21].direction = NS;
     Point start_pos21 = { topLeft->x + intersection_width/8, botLeft->y };
     Point end_pos21 = { topLeft->x + intersection_width/8, 3000.0 };
     all_lanes[21].start_pos = start_pos21;
     all_lanes[21].end_pos = end_pos21;


     all_lanes[17].direction = NS;
     Point start_pos17 = { topRight->x + intersection_width/8, 0 };
     Point end_pos17 = { topRight->x + intersection_width/8, topRight->y };
     all_lanes[17].start_pos = start_pos17;
     all_lanes[17].end_pos = end_pos17;

     all_lanes[18].direction = NS;
     Point start_pos18 = { topRight->x + intersection_width/8, topRight->y };
     Point end_pos18 = { topRight->x + intersection_width/8, botRight->y };
     all_lanes[18].start_pos = start_pos18;
     all_lanes[18].end_pos = end_pos18;

     all_lanes[19].direction = NS;
     Point start_pos19 = { topRight->x + intersection_width/8, botRight->y };
     Point end_pos19 = { topRight->x + intersection_width/8, 3000.0 };
     all_lanes[19].start_pos = start_pos19;
     all_lanes[19].end_pos = end_pos19;
 }
}

int main()
{
    init_lanes();
    return 0;
}
